Introdução à Análise Exploratória de Dados (EDA) em Julia – Do Zero ao Julia
…
# Obs.: Apenas precisamos carregar o pacote uma vez por ambiente.

Dica: Use Pkg.instantiate() para garantir que todas as dependências do seu projeto estejam resolvidas.

Carregando um Conjunto de Dados

using RDatasets
iris = dataset("datasets", "iris")

150×5 DataFrame
 Row │ SepalLength  SepalWidth  PetalLength  PetalWidth  Species
     │ Float64      Float64     Float64      Float64     Cat…
─────┼─────────────────────────────────────────────────────────────
   1 │         5.1         3.5          1.4         0.2  setosa
   2 │         4.9         3.0          1.4         0.2  setosa
   3 │         4.7         3.2          1.3         0.2  setosa
   4 │         4.6         3.1          1.5         0.2  setosa
   5 │         5.0         3.6          1.4         0.2  setosa
   6 │         5.4         3.9          1.7         0.4  setosa
   7 │         4.6         3.4          1.4         0.3  setosa
   8 │         5.0         3.4          1.5         0.2  setosa
  ⋮  │      ⋮           ⋮            ⋮           ⋮           ⋮
 144 │         6.8         3.2          5.9         2.3  virginica
 145 │         6.7         3.3          5.7         2.5  virginica
 146 │         6.7         3.0          5.2         2.3  virginica
 147 │         6.3         2.5          5.0         1.9  virginica
 148 │         6.5         3.0          5.2         2.0  virginica
 149 │         6.2         3.4          5.4         2.3  virginica
 150 │         5.9         3.0          5.1         1.8  virginica
                                                   135 rows omitted
…
Para filtrar nossos dados, podemos usar a função filter(), no formato filter(row ou col -> condição, dados) e assim criamos uma condição para filtrar as linhas do dataset. Uma alternativa seria usar o formato dados[condição, :].

Agrupamento e seleção

Selecionando as colunas SepalLength e PetalWidth para análise.

# Como selecionar e agrupar colunas
selecao = select(iris, :SepalLength, :PetalWidth) # Selecionando colunas

150×2 DataFrame
 Row │ SepalLength  PetalWidth
     │ Float64      Float64
─────┼─────────────────────────
   1 │         5.1         0.2
   2 │         4.9         0.2
   3 │         4.7         0.2
   4 │         4.6         0.2
   5 │         5.0         0.2
   6 │         5.4         0.4
   7 │         4.6         0.3
   8 │         5.0         0.2
  ⋮  │      ⋮           ⋮
 144 │         6.8         2.3
 145 │         6.7         2.5
 146 │         6.7         2.3
 147 │         6.3         1.9
 148 │         6.5         2.0
 149 │         6.2         2.3
 150 │         5.9         1.8
               135 rows omitted

first(selecao, 5)

5×2 DataFrame
 Row │ SepalLength  PetalWidth
     │ Float64      Float64
─────┼─────────────────────────
   1 │         5.1         0.2
   2 │         4.9         0.2
   3 │         4.7         0.2
   4 │         4.6         0.2
   5 │         5.0         0.2

Dataframes agrupados por Species.

grupo = groupby(iris, :Species) # Agrupando por categorias de uma colunas, nesse caso por espécie (virginica, setosa e versicolor)

GroupedDataFrame with 3 groups based on key: Species
First Group (50 rows): Species = CategoricalArrays.CategoricalValue{String, UInt8} "setosa"
 Row │ SepalLength  SepalWidth  PetalLength  PetalWidth  Species  soma_col  no ⋯
     │ Float64      Float64     Float64      Float64     Cat…     Float64   Fl ⋯
─────┼──────────────────────────────────────────────────────────────────────────
   1 │         5.1         3.5          1.4         0.2  setosa        3.7     ⋯
   2 │         4.9         3.0          1.4         0.2  setosa        3.2
  ⋮  │      ⋮           ⋮            ⋮           ⋮          ⋮        ⋮         ⋱
  49 │         5.3         3.7          1.5         0.2  setosa        3.9
  50 │         5.0         3.3          1.4         0.2  setosa        3.5
                                                   2 columns and 46 rows omitted
…
Gráficos de dispersão (scatterplots) são úteis para visualizar a relação entre duas variáveis contínuas, enquanto histogramas ajudam a entender a distribuição de uma única variável. Vamos agora aprender filtrar e selecionar os dados que queremos visualizar.

using StatsPlots

# Filtrando apenas as linhas com Species == "virginica"
virginica = filter(row -> row.Species == "virginica", iris)

50×8 DataFrame
 Row │ SepalLength  SepalWidth  PetalLength  PetalWidth  Species    soma_col   ⋯
     │ Float64      Float64     Float64      Float64     Cat…       Float64    ⋯
─────┼──────────────────────────────────────────────────────────────────────────
   1 │         6.3         3.3          6.0         2.5  virginica       5.8   ⋯
   2 │         5.8         2.7          5.1         1.9  virginica       4.6
   3 │         7.1         3.0          5.9         2.1  virginica       5.1
   4 │         6.3         2.9          5.6         1.8  virginica       4.7
   5 │         6.5         3.0          5.8         2.2  virginica       5.2   ⋯
   6 │         7.6         3.0          6.6         2.1  virginica       5.1
   7 │         4.9         2.5          4.5         1.7  virginica       4.2
   8 │         7.3         2.9          6.3         1.8  virginica       4.7
  ⋮  │      ⋮           ⋮            ⋮           ⋮           ⋮         ⋮       ⋱
  44 │         6.8         3.2          5.9         2.3  virginica       5.5   ⋯
  45 │         6.7         3.3          5.7         2.5  virginica       5.8
  46 │         6.7         3.0          5.2         2.3  virginica       5.3
  47 │         6.3         2.5          5.0         1.9  virginica       4.4
  48 │         6.5         3.0          5.2         2.0  virginica       5.0   ⋯
  49 │         6.2         3.4          5.4         2.3  virginica       5.7
  50 │         5.9         3.0          5.1         1.8  virginica       4.8
                                                   2 columns and 35 rows omitted

# Selecionando apenas as colunas de interesse, nesse caso SepalWidth e PetalLength

dados_virg = select(virginica, :SepalWidth, :PetalLength)

50×2 DataFrame
 Row │ SepalWidth  PetalLength
     │ Float64     Float64
─────┼─────────────────────────
   1 │        3.3          6.0
   2 │        2.7          5.1
   3 │        3.0          5.9
   4 │        2.9          5.6
   5 │        3.0          5.8
   6 │        3.0          6.6
   7 │        2.5          4.5
   8 │        2.9          6.3
  ⋮  │     ⋮            ⋮
  44 │        3.2          5.9
  45 │        3.3          5.7
  46 │        3.0          5.2
  47 │        2.5          5.0
  48 │        3.0          5.2
  49 │        3.4          5.4
  50 │        3.0          5.1
                35 rows omitted
…
