Reamostragem com o pacote Bootstrap.jl – Do Zero ao Julia
…
Em primeiro lugar, vamos carregar os pacotes necessários:

Pkg.add("DataFrames")
Pkg.add("GLM")
using GLM
using DataFrames

Agora, vamos criar nossos dados:

x = 1:20;
y = 5 .+ 2 .* x .+ randn(20);
dados = DataFrame(x = x, y = y)

20×2 DataFrame
 Row │ x      y
     │ Int64  Float64
─────┼─────────────────
   1 │     1   6.52246
   2 │     2  10.4967
   3 │     3  10.7977
   4 │     4  12.4119
   5 │     5  15.3369
   6 │     6  17.0298
   7 │     7  18.688
   8 │     8  18.8134
  ⋮  │   ⋮       ⋮
  14 │    14  34.1752
  15 │    15  36.7834
  16 │    16  37.3749
  17 │    17  41.9491
  18 │    18  43.5868
  19 │    19  43.6994
  20 │    20  43.9772
         5 rows omitted
…
